{
  "project_info": {
    "project_number": "903535799400",
    "firebase_url": "https://naasalonapp.firebaseio.com",
    "project_id": "naasalonapp",
    "storage_bucket": "naasalonapp.appspot.com"
  },
  "client": [
    {
      "client_info": {
        "mobilesdk_app_id": "1:903535799400:android:7e703dec46863127",
        "android_client_info": {
          "package_name": "com.paps.beauticianapp"
        }
      },
      "oauth_client": [
        {
          "client_id": "903535799400-p941tvn552raaut1nno0pa7p822qu3du.apps.googleusercontent.com",
          "client_type": 1,
          "android_info": {
            "package_name": "com.paps.beauticianapp",
            "certificate_hash": "826602a0408d9fbc2b9529a103a33f5004e5a083"
          }
        },
        {
          "client_id": "903535799400-3v97ogvb5p31o7qb423mtpip413vpkj1.apps.googleusercontent.com",
          "client_type": 3
        }
      ],
      "api_key": [
        {
          "current_key": "AIzaSyDfwVW5WvJocA_EdakKBDailPUwIYL5-ZI"
        }
      ],
      "services": {
        "appinvite_service": {
          "other_platform_oauth_client": [
            {
              "client_id": "903535799400-3v97ogvb5p31o7qb423mtpip413vpkj1.apps.googleusercontent.com",
              "client_type": 3
            }
          ]
        }
      }
    },
    {
      "client_info": {
        "mobilesdk_app_id": "1:903535799400:android:79d2aea544a60160",
        "android_client_info": {
          "package_name": "com.paps.customerapp"
        }
      },
      "oauth_client": [
        {
          "client_id": "903535799400-4p4o0463opkg5lvds5vic41g4i68hh27.apps.googleusercontent.com",
          "client_type": 1,
          "android_info": {
            "package_name": "com.paps.customerapp",
            "certificate_hash": "826602a0408d9fbc2b9529a103a33f5004e5a083"
          }
        },
        {
          "client_id": "903535799400-3v97ogvb5p31o7qb423mtpip413vpkj1.apps.googleusercontent.com",
          "client_type": 3
        }
      ],
      "api_key": [
        {
          "current_key": "AIzaSyDfwVW5WvJocA_EdakKBDailPUwIYL5-ZI"
        }
      ],
      "services": {
        "appinvite_service": {
          "other_platform_oauth_client": [
            {
              "client_id": "903535799400-3v97ogvb5p31o7qb423mtpip413vpkj1.apps.googleusercontent.com",
              "client_type": 3
            }
          ]
        }
      }
    },
    {
      "client_info": {
        "mobilesdk_app_id": "1:903535799400:android:0ed025ea3c8eeb02",
        "android_client_info": {
          "package_name": "com.paps.salonapp"
        }
      },
      "oauth_client": [
        {
          "client_id": "903535799400-vgbdivv26dsvbe2jr0kpg356vq36raen.apps.googleusercontent.com",
          "client_type": 1,
          "android_info": {
            "package_name": "com.paps.salonapp",
            "certificate_hash": "826602a0408d9fbc2b9529a103a33f5004e5a083"
          }
        },
        {
          "client_id": "903535799400-3v97ogvb5p31o7qb423mtpip413vpkj1.apps.googleusercontent.com",
          "client_type": 3
        }
      ],
      "api_key": [
        {
          "current_key": "AIzaSyDfwVW5WvJocA_EdakKBDailPUwIYL5-ZI"
        }
      ],
      "services": {
        "appinvite_service": {
          "other_platform_oauth_client": [
            {
              "client_id": "903535799400-3v97ogvb5p31o7qb423mtpip413vpkj1.apps.googleusercontent.com",
              "client_type": 3
            }
          ]
        }
      }
    },
    {
      "client_info": {
        "mobilesdk_app_id": "1:903535799400:android:b0f096acc46d7c84",
        "android_client_info": {
          "package_name": "com.promise.salonapp"
        }
      },
      "oauth_client": [
        {
          "client_id": "903535799400-76f9pcmsl8chc1bm0plf0iqt0pnq6o6b.apps.googleusercontent.com",
          "client_type": 1,
          "android_info": {
            "package_name": "com.promise.salonapp",
            "certificate_hash": "826602a0408d9fbc2b9529a103a33f5004e5a083"
          }
        },
        {
          "client_id": "903535799400-3v97ogvb5p31o7qb423mtpip413vpkj1.apps.googleusercontent.com",
          "client_type": 3
        }
      ],
      "api_key": [
        {
          "current_key": "AIzaSyDfwVW5WvJocA_EdakKBDailPUwIYL5-ZI"
        }
      ],
      "services": {
        "appinvite_service": {
          "other_platform_oauth_client": [
            {
              "client_id": "903535799400-3v97ogvb5p31o7qb423mtpip413vpkj1.apps.googleusercontent.com",
              "client_type": 3
            }
          ]
        }
      }
    },
    {
      "client_info": {
        "mobilesdk_app_id": "1:903535799400:android:3178769c6b16a304",
        "android_client_info": {
          "package_name": "com.promise.salonapplication"
        }
      },
      "oauth_client": [
        {
          "client_id": "903535799400-h2ruhknd9etgiil7hl5rltdqf4qtpa77.apps.googleusercontent.com",
          "client_type": 1,
          "android_info": {
            "package_name": "com.promise.salonapplication",
            "certificate_hash": "826602a0408d9fbc2b9529a103a33f5004e5a083"
          }
        },
        {
          "client_id": "903535799400-3v97ogvb5p31o7qb423mtpip413vpkj1.apps.googleusercontent.com",
          "client_type": 3
        }
      ],
      "api_key": [
        {
          "current_key": "AIzaSyDfwVW5WvJocA_EdakKBDailPUwIYL5-ZI"
        }
      ],
      "services": {
        "appinvite_service": {
          "other_platform_oauth_client": [
            {
              "client_id": "903535799400-3v97ogvb5p31o7qb423mtpip413vpkj1.apps.googleusercontent.com",
              "client_type": 3
            }
          ]
        }
      }
    }
  ],
  "configuration_version": "1"
}