{

    "Hair Extensions - Weave On": {
      "Micro-Strands": {
        "name": "Micro-Strands",
        "duration": "5h",
        "price": "50"
      },
      "Weave On": {
        "name": "Weave On",
        "duration": "2h",
        "price": "50"
      },
      "Wig Cap": {
        "name": "Wig Cap",
        "duration": "2h",
        "price": "50"
      },
      "Weave on with cutting and Styling": {
        "name": "Weave on with cutting and Styling",
        "duration": "2h",
        "price": "50"
      },
      "Frontal Weave on": {
        "name": "Frontal Weave On",
        "duration": "2h",
        "price": "50"
      },
      "Wig Cap with cutting": {
        "name": "Wig Cap with cutting",
        "duration": "2h",
        "price": "50"
      }
    },
    "Beauty Parlour" : {
      "Normal Lashes": {
        "name": "Normal Lashes",
        "duration": "2h",
        "price": "50"
      },
      "Mink Lashes": {
        "name": "Mink Lashes",
        "duration": "3h",
        "price": "67"
      },
      "Eyebrow": {
        "name": "Eyebrow",
        "duration": "10Min",
        "price": "10"
      },
      "Tinting": {
        "name": "Tinting",
        "duration": "2h",
        "price": "50"
      },
      "Bridal Make-Up": {
        "name": "Bridal Make-Up",
        "duration": "2h",
        "price": "50"
      }
    },
    "Washing Department" : {
      "Touch up and setting": {
        "name": "Touch up and setting",
        "duration": "2h",
        "price": "50"
      },
      "Touch up and straightening": {
        "name": "Touch up and straightening",
        "duration": "2h",
        "price": "50"
      },
      "Leisure curls": {
        "name": "Leisure curls",
        "duration": "2h",
        "price": "50"
      },
      "Washing and setting": {
        "name": "Washing and setting",
        "duration": "2h",
        "price": "50"
      },
      "Washing and straightening": {
        "name": "Washing and straightening",
        "duration": "2h",
        "price": "50"
      }
    },
    "Styling Department" : {
      "Pony": {
        "name": "Pony",
        "duration": "2h",
        "price": "50"
      },
      "Washing and Tonging": {
        "name": "Washing and Tonging",
        "duration": "2h",
        "price": "50"
      },
      "Cutting, tonging and styling": {
        "name": "Cutting, tonging and Styling",
        "duration": "2h",
        "price": "50"
      },
      "Spiral": {
        "name": "Spiral",
        "duration": "2h",
        "price": "50"
      },
      "Tonging": {
        "name": "Tonging",
        "duration": "2h",
        "price": "50"
      }
    },
    "Braids" : {
      "Rasta": {
        "name": "Rasta",
        "duration": "2h",
        "price": "50"
      },
      "Cornrow": {
        "name": "Cornrow",
        "duration": "2h",
        "price": "50"
      },
      "Cornrow Rasta": {
        "name": "Cornrow Rasta",
        "duration": "2h",
        "price": "50"
      },
      "Faux Locks": {
        "name": "Faux Locks",
        "duration": "2h",
        "price": "50"
      },
      "Hand Twist": {
        "name": "Hand Twist",
        "duration": "2h",
        "price": "50"
      }
    },
    "Nails Parlour" : {
      "Gel Nails": {
        "name": "Gel Nails",
        "duration": "2h",
        "price": "50"
      },
      "Ombre Nails": {
        "name": "Ombre Nails",
        "duration": "2h",
        "price": "50"
      },
      "Acrylic Nails": {
        "name": "Acrylic Nails",
        "duration": "2h",
        "price": "50"
      },
      "Nails Polish": {
        "name": "Nails Polish",
        "duration": "2h",
        "price": "50"
      },
      "Stick on nails": {
        "name": "Stick on nails",
        "duration": "2h",
        "price": "50"
      }
    },
    "Nails Spa" : {
      "Pedicure": {
        "name": "Pedicure",
        "duration": "2h",
        "price": "50"
      },
      "Manicure": {
        "name": "Manicure",
        "duration": "2h",
        "price": "50"
      }

    },
    "Day Spa" : {
      "Facial - Rejuvenation": {
        "name": "Facial - Rejuvenation",
        "duration": "2h",
        "price": "50"
      },
      "Facial - Acne": {
        "name": "Facial - Acne",
        "duration": "2h",
        "price": "50"
      },
      "Facial - Anti Aging": {
        "name": "Facial - Anti Aging",
        "duration": "2h",
        "price": "50"
      },
      "Massage - Hot stone therapy": {
        "name": "Massage - Hot stone therapy",
        "duration": "2h",
        "price": "50"
      },
      "Massage - Deep Tissue": {
        "name": "Massage - Deep Tissue",
        "duration": "2h",
        "price": "50"
      }
    },


  "Beauticians" : {
    "Zl3sml8DZjTznFMygBqBELCZbws2" : {
      "deviceToken" : "dl6OhVbI9J4:APA91bF3XjXYGWZJ2MCdolxFeafuElHufgqPWR_std8E5ppK6CUVmJ6_W0y03H9MMBqdNF_MgfE0wu0lccfj2zERm8kRqnwth3eluP-uNqJ8Re9HTJtFpIS0E9Q-s5R_RVrFYy8fYJ0A",
      "email" : "provider@gmail.com",
      "name" : "Service Provider",
      "nameOfSalon" : "Provider's Services",
      "phoneNumber" : "78",
      "profileImage" : "default.png"
    }
  },

  "Customers" : {
    "qEuU5TvcIKZGrc7OVZvyHL4iVL63" : {
      "deviceToken" : "c6S13FM8wkA:APA91bGlXexavgFF_26vcYt6B_w6PbyXUP7yBO2YC7wTUoqQTpHHMY7uk6KjszdrD8qpkH3FR8x6zTmnZxEN5kUHW60rfcpXYoY8qeapm8bqQHXVJku1I14tc5ijm1QbiK0V7yiJAW7T",
      "displayName" : "Promise Atokple",
      "emailAddress" : "promise@gmail.com",
      "phoneNumber" : "8494959",
      "profileImage" : "default.png"
    }
  }
}
